{
  "name": "Tigo Games",
  "version": "1.0.0",
  "description": "Tigo Games Documentation",
  "title": "Tigo Games",
  "url": "http://motornationapp.com/dev/tigo/public/api/",
  "template": {
    "withCompare": true,
    "withGenerator": true
  }
}