<?xml version="1.0" encoding="UTF-8"?>
<svg width="1280px" height="504px" viewBox="0 0 1280 504" version="1.1" xmlns="http://www.w3.org/2000/svg" xmlns:xlink="http://www.w3.org/1999/xlink">
    <!-- Generator: Sketch 46.2 (44496) - http://www.bohemiancoding.com/sketch -->
    <title>item-sky</title>
    <desc>Created with Sketch.</desc>
    <defs>
        <radialGradient cx="50%" cy="50.129544%" fx="50%" fy="50.129544%" r="47.5959587%" gradientTransform="translate(0.500000,0.501295),scale(0.285281,1.000000),rotate(90.000000),translate(-0.500000,-0.501295)" id="radialGradient-1">
            <stop stop-color="#013883" stop-opacity="0" offset="0%"></stop>
            <stop stop-color="#013883" offset="100%"></stop>
        </radialGradient>
        <linearGradient x1="46.5685345%" y1="-55.9808731%" x2="52.2020109%" y2="100%" id="linearGradient-2">
            <stop stop-color="#612B66" stop-opacity="0" offset="0%"></stop>
            <stop stop-color="#622C68" offset="100%"></stop>
        </linearGradient>
        <path d="M367.085123,0 L913.914877,0 C913.879807,0.0592443797 913.844719,0.118476377 913.809612,0.177695983 C858.507858,93.4617967 756.807219,156 640.5,156 C524.15467,156 422.425494,93.420806 367.136041,0.0859863882 C367.119064,0.0573271583 367.102091,0.0286650286 367.085123,0 Z" id="path-3"></path>
        <filter x="0.0%" y="0.0%" width="100.0%" height="100.0%" filterUnits="objectBoundingBox" id="filter-4">
            <feGaussianBlur stdDeviation="0" in="SourceGraphic"></feGaussianBlur>
        </filter>
        <linearGradient x1="74.7661766%" y1="6.65628419%" x2="11.3091301%" y2="81.6950239%" id="linearGradient-5">
            <stop stop-color="#F584FF" stop-opacity="0" offset="0%"></stop>
            <stop stop-color="#EC42FF" stop-opacity="0.136662138" offset="100%"></stop>
        </linearGradient>
        <filter x="0.0%" y="0.0%" width="100.0%" height="100.0%" filterUnits="objectBoundingBox" id="filter-6">
            <feGaussianBlur stdDeviation="0" in="SourceGraphic"></feGaussianBlur>
        </filter>
    </defs>
    <g id="All" stroke="none" stroke-width="1" fill="none" fill-rule="evenodd">
        <g id="Assets" transform="translate(-184.000000, -174.000000)">
            <g id="Item/Sky" transform="translate(184.000000, 173.000000)">
                <rect id="Rectangle-2" fill="#01214D" x="0" y="0" width="1280" height="504"></rect>
                <g id="Combined-Shape" opacity="0.600000024" filter="url(#filter-4)">
                    <use fill-opacity="0.400000006" fill="url(#radialGradient-1)" xlink:href="#path-3"></use>
                    <use fill="url(#linearGradient-2)" xlink:href="#path-3"></use>
                </g>
                <path d="M640.5,158 C744.794919,158 837.344609,107.712695 895.225014,30.0621416 C908.033757,12.8783293 815,95 640.5,116 C466,137 346.743157,-21.7167976 386.792235,31.419299 C444.736391,108.29813 536.813949,158 640.5,158 Z" id="Oval-5" fill="url(#linearGradient-5)" opacity="0.600000024" filter="url(#filter-6)"></path>
            </g>
        </g>
    </g>
</svg>